<?xml version="1.0" encoding="utf-8" standalone="no"?><!DOCTYPE svg PUBLIC "-//W3C//DTD SVG 20010904//EN" "http://www.w3.org/TR/2001/REC-SVG-20010904/DTD/svg10.dtd"><svg xmlns="http://www.w3.org/2000/svg" width="960" height="394" xmlns:xlink="http://www.w3.org/1999/xlink"><source><![CDATA[Bob->System: Hello, I want to search appointments for 2020-01-01
Note right of System: System search in the database
System-->Bob: Here are the appointments for 2020-01-01
Note right of System: System returns the appointments
System-->Bob: See you!
Note right of Bob: Bob leaves, happy.]]></source><desc></desc><defs><marker viewBox="0 0 5 5" markerWidth="5" markerHeight="5" orient="auto" refX="5" refY="2.5" id="markerArrowBlock"><path d="M 0 0 L 5 2.5 L 0 5 z"></path></marker><marker viewBox="0 0 9.6 16" markerWidth="4" markerHeight="16" orient="auto" refX="9.6" refY="8" id="markerArrowOpen"><path d="M 9.6,8 1.92,16 0,13.7 5.76,8 0,2.286 1.92,0 9.6,8 z"></path></marker></defs><g class="title"></g><g class="actor"><rect x="10" y="20" width="48.8046875" height="38" stroke="#000000" fill="#ffffff" style="stroke-width: 2;"></rect><text x="20" y="44.5" style="font-size: 16px; font-family: &quot;Andale Mono&quot;, monospace;"><tspan x="20">Bob</tspan></text></g><g class="actor"><rect x="10" y="336" width="48.8046875" height="38" stroke="#000000" fill="#ffffff" style="stroke-width: 2;"></rect><text x="20" y="360.5" style="font-size: 16px; font-family: &quot;Andale Mono&quot;, monospace;"><tspan x="20">Bob</tspan></text></g><line x1="34.40234375" x2="34.40234375" y1="58" y2="336" stroke="#000000" fill="none" style="stroke-width: 2;"></line><g class="actor"><rect x="505.27734375" y="20" width="77.609375" height="38" stroke="#000000" fill="#ffffff" style="stroke-width: 2;"></rect><text x="515.27734375" y="44.5" style="font-size: 16px; font-family: &quot;Andale Mono&quot;, monospace;"><tspan x="515.27734375">System</tspan></text></g><g class="actor"><rect x="505.27734375" y="336" width="77.609375" height="38" stroke="#000000" fill="#ffffff" style="stroke-width: 2;"></rect><text x="515.27734375" y="360.5" style="font-size: 16px; font-family: &quot;Andale Mono&quot;, monospace;"><tspan x="515.27734375">System</tspan></text></g><line x1="544.08203125" x2="544.08203125" y1="58" y2="336" stroke="#000000" fill="none" style="stroke-width: 2;"></line><g class="signal"><text x="44.40234375" y="88.5" style="font-size: 16px; font-family: &quot;Andale Mono&quot;, monospace;"><tspan x="44.40234375">Hello, I want to search appointments for 2020-01-01</tspan></text><line x1="34.40234375" x2="544.08203125" y1="96" y2="96" stroke="#000000" fill="none" style="stroke-width: 2; marker-end: url(&quot;#markerArrowBlock&quot;);"></line></g><g class="note"><rect x="564.08203125" y="116" width="288.4453125" height="28" stroke="#000000" fill="#ffffff" style="stroke-width: 2;"></rect><text x="569.08203125" y="135.5" style="font-size: 16px; font-family: &quot;Andale Mono&quot;, monospace;"><tspan x="569.08203125">System search in the database</tspan></text></g><g class="signal"><text x="97.2109375" y="174.5" style="font-size: 16px; font-family: &quot;Andale Mono&quot;, monospace;"><tspan x="97.2109375">Here are the appointments for 2020-01-01</tspan></text><line x1="544.08203125" x2="34.40234375" y1="182" y2="182" stroke="#000000" fill="none" style="stroke-width: 2; stroke-dasharray: 6, 2; marker-end: url(&quot;#markerArrowBlock&quot;);"></line></g><g class="note"><rect x="564.08203125" y="202" width="307.6484375" height="28" stroke="#000000" fill="#ffffff" style="stroke-width: 2;"></rect><text x="569.08203125" y="221.5" style="font-size: 16px; font-family: &quot;Andale Mono&quot;, monospace;"><tspan x="569.08203125">System returns the appointments</tspan></text></g><g class="signal"><text x="250.8359375" y="260.5" style="font-size: 16px; font-family: &quot;Andale Mono&quot;, monospace;"><tspan x="250.8359375">See you!</tspan></text><line x1="544.08203125" x2="34.40234375" y1="268" y2="268" stroke="#000000" fill="none" style="stroke-width: 2; stroke-dasharray: 6, 2; marker-end: url(&quot;#markerArrowBlock&quot;);"></line></g><g class="note"><rect x="54.40234375" y="288" width="182.828125" height="28" stroke="#000000" fill="#ffffff" style="stroke-width: 2;"></rect><text x="59.40234375" y="307.5" style="font-size: 16px; font-family: &quot;Andale Mono&quot;, monospace;"><tspan x="59.40234375">Bob leaves, happy.</tspan></text></g></svg>