<?xml version="1.0" encoding="utf-8" standalone="no"?><!DOCTYPE svg PUBLIC "-//W3C//DTD SVG 20010904//EN" "http://www.w3.org/TR/2001/REC-SVG-20010904/DTD/svg10.dtd"><svg xmlns="http://www.w3.org/2000/svg" width="1190" height="556" xmlns:xlink="http://www.w3.org/1999/xlink"><source><![CDATA[Alice->System: Make me appointment to 2020-01-01 at 10:00
Note right of System: System tink if Alice can make it
System-->Alice: Yes, you can make it at 10:00 on 2020-01-01
Note right of System: System find a free time slot
System-->Alice: Your appointment number is your DNI
Note right of System: System now save the appointment in the database in json format
System-->Alice: Your appointment is saved
Alice->System: Thanks! I will be there!
System-->Alice: See you!
Note right of Alice: Alice leaves, happy.
]]></source><desc></desc><defs><marker viewBox="0 0 5 5" markerWidth="5" markerHeight="5" orient="auto" refX="5" refY="2.5" id="markerArrowBlock"><path d="M 0 0 L 5 2.5 L 0 5 z"></path></marker><marker viewBox="0 0 9.6 16" markerWidth="4" markerHeight="16" orient="auto" refX="9.6" refY="8" id="markerArrowOpen"><path d="M 9.6,8 1.92,16 0,13.7 5.76,8 0,2.286 1.92,0 9.6,8 z"></path></marker></defs><g class="title"></g><g class="actor"><rect x="10" y="20" width="68.0078125" height="38" stroke="#000000" fill="#ffffff" style="stroke-width: 2;"></rect><text x="20" y="44.5" style="font-size: 16px; font-family: &quot;Andale Mono&quot;, monospace;"><tspan x="20">Alice</tspan></text></g><g class="actor"><rect x="10" y="498" width="68.0078125" height="38" stroke="#000000" fill="#ffffff" style="stroke-width: 2;"></rect><text x="20" y="522.5" style="font-size: 16px; font-family: &quot;Andale Mono&quot;, monospace;"><tspan x="20">Alice</tspan></text></g><line x1="44.00390625" x2="44.00390625" y1="58" y2="498" stroke="#000000" fill="none" style="stroke-width: 2;"></line><g class="actor"><rect x="438.06640625" y="20" width="77.609375" height="38" stroke="#000000" fill="#ffffff" style="stroke-width: 2;"></rect><text x="448.06640625" y="44.5" style="font-size: 16px; font-family: &quot;Andale Mono&quot;, monospace;"><tspan x="448.06640625">System</tspan></text></g><g class="actor"><rect x="438.06640625" y="498" width="77.609375" height="38" stroke="#000000" fill="#ffffff" style="stroke-width: 2;"></rect><text x="448.06640625" y="522.5" style="font-size: 16px; font-family: &quot;Andale Mono&quot;, monospace;"><tspan x="448.06640625">System</tspan></text></g><line x1="476.87109375" x2="476.87109375" y1="58" y2="498" stroke="#000000" fill="none" style="stroke-width: 2;"></line><g class="signal"><text x="58.8046875" y="88.5" style="font-size: 16px; font-family: &quot;Andale Mono&quot;, monospace;"><tspan x="58.8046875">Make me appointment to 2020-01-01 at 10:00</tspan></text><line x1="44.00390625" x2="476.87109375" y1="96" y2="96" stroke="#000000" fill="none" style="stroke-width: 2; marker-end: url(&quot;#markerArrowBlock&quot;);"></line></g><g class="note"><rect x="496.87109375" y="116" width="317.25" height="28" stroke="#000000" fill="#ffffff" style="stroke-width: 2;"></rect><text x="501.87109375" y="135.5" style="font-size: 16px; font-family: &quot;Andale Mono&quot;, monospace;"><tspan x="501.87109375">System tink if Alice can make it</tspan></text></g><g class="signal"><text x="54.00390625" y="174.5" style="font-size: 16px; font-family: &quot;Andale Mono&quot;, monospace;"><tspan x="54.00390625">Yes, you can make it at 10:00 on 2020-01-01</tspan></text><line x1="476.87109375" x2="44.00390625" y1="182" y2="182" stroke="#000000" fill="none" style="stroke-width: 2; stroke-dasharray: 6, 2; marker-end: url(&quot;#markerArrowBlock&quot;);"></line></g><g class="note"><rect x="496.87109375" y="202" width="278.84375" height="28" stroke="#000000" fill="#ffffff" style="stroke-width: 2;"></rect><text x="501.87109375" y="221.5" style="font-size: 16px; font-family: &quot;Andale Mono&quot;, monospace;"><tspan x="501.87109375">System find a free time slot</tspan></text></g><g class="signal"><text x="92.41015625" y="260.5" style="font-size: 16px; font-family: &quot;Andale Mono&quot;, monospace;"><tspan x="92.41015625">Your appointment number is your DNI</tspan></text><line x1="476.87109375" x2="44.00390625" y1="268" y2="268" stroke="#000000" fill="none" style="stroke-width: 2; stroke-dasharray: 6, 2; marker-end: url(&quot;#markerArrowBlock&quot;);"></line></g><g class="note"><rect x="496.87109375" y="288" width="605.296875" height="28" stroke="#000000" fill="#ffffff" style="stroke-width: 2;"></rect><text x="501.87109375" y="307.5" style="font-size: 16px; font-family: &quot;Andale Mono&quot;, monospace;"><tspan x="501.87109375">System now save the appointment in the database in json format</tspan></text></g><g class="signal"><text x="140.41796875" y="346.5" style="font-size: 16px; font-family: &quot;Andale Mono&quot;, monospace;"><tspan x="140.41796875">Your appointment is saved</tspan></text><line x1="476.87109375" x2="44.00390625" y1="354" y2="354" stroke="#000000" fill="none" style="stroke-width: 2; stroke-dasharray: 6, 2; marker-end: url(&quot;#markerArrowBlock&quot;);"></line></g><g class="signal"><text x="145.21875" y="384.5" style="font-size: 16px; font-family: &quot;Andale Mono&quot;, monospace;"><tspan x="145.21875">Thanks! I will be there!</tspan></text><line x1="44.00390625" x2="476.87109375" y1="392" y2="392" stroke="#000000" fill="none" style="stroke-width: 2; marker-end: url(&quot;#markerArrowBlock&quot;);"></line></g><g class="signal"><text x="222.03125" y="422.5" style="font-size: 16px; font-family: &quot;Andale Mono&quot;, monospace;"><tspan x="222.03125">See you!</tspan></text><line x1="476.87109375" x2="44.00390625" y1="430" y2="430" stroke="#000000" fill="none" style="stroke-width: 2; stroke-dasharray: 6, 2; marker-end: url(&quot;#markerArrowBlock&quot;);"></line></g><g class="note"><rect x="64.00390625" y="450" width="202.03125" height="28" stroke="#000000" fill="#ffffff" style="stroke-width: 2;"></rect><text x="69.00390625" y="469.5" style="font-size: 16px; font-family: &quot;Andale Mono&quot;, monospace;"><tspan x="69.00390625">Alice leaves, happy.</tspan></text></g></svg>